<svg xmlns="http://www.w3.org/2000/svg" width="135" height="20" viewBox="0 0 135 20">
    <g fill="#1A1919" fill-rule="evenodd">
        <path d="M.985.561h9.21v6.144h.06L17.277.561h10.32l-8.47 7.535 9.799 10.342H17.277l-7.022-7.318h-.06v7.318H.984V.561M42.23 15.335c4.095 0 3.824-4.488 3.824-5.97 0-1.48.047-5.596-3.824-5.596s-3.826 4.115-3.826 5.595c0 1.483-.274 5.971 3.826 5.971zm0-15.27c10.453 0 13.3 2.152 13.3 9.487 0 7.336-2.847 9.49-13.3 9.49-10.456 0-13.299-2.154-13.299-9.49 0-7.335 2.843-9.488 13.3-9.488zM75.385 11.724v6.834h9.453V.681h-9.453v6.144h-6.78V.682h-9.456v17.875h9.455v-6.833h6.78M89.306.682h9.673v13.62s7.72.021 8.746.021c1.03 0 1.634-.903 1.634-.903v5.137H89.306V.682M131.91 6.6c-2-1.574-3.716-2.103-5.559-2.132-1.803-.03-3.45.586-3.45 1.663 0 .85 1.23 1.204 5.536 2.085 3.539.727 5.893 2.502 5.893 5.807 0 3.73-6.316 5.839-11.964 5.839-3.967 0-7.011-.703-9.735-1.904V12.95c1.684 1.727 5.452 2.644 8.338 2.644 1.601 0 2.385-.23 2.385-1.482 0-.774-.997-1.48-4.019-2.026-5.728-1.03-7.663-2.641-7.663-5.397 0-3.953 5.009-6.308 11.173-6.308 3.325 0 6.38.1 9.064 1.329V6.6"/>
        <path d="M103.973 7.974l.663-1.149c-1.991-.967-2.58-3.431-1.57-4.837 1.09-1.512 4.115-2.16 5.746.182 1.39 1.996.062 3.688-.543 4.172-.604.483-4.296 1.632-4.296 1.632"/>
    </g>
</svg>
