<svg xmlns="http://www.w3.org/2000/svg" width="166" height="33" viewBox="0 0 166 33">
    <path fill="#FFF" fill-rule="evenodd" d="M23.194 2.604h-15.3v1.575c.378.053.854.141 1.43.262.574.121 1.064.27 1.47.445.567.242.926.525 1.075.848.149.323.223.727.223 1.212v16.182c0 2.344-.463 4.094-1.387 5.253-.924 1.158-2.196 1.737-3.815 1.737-.419 0-.83-.094-1.235-.282-.405-.189-.668-.417-.79-.687v-.262a13.914 13.914 0 0 0 2.05-2.029c.598-.734.897-1.53.897-2.393 0-1.008-.346-1.856-1.039-2.543-.693-.686-1.625-1.029-2.796-1.029-1.238 0-2.21.41-2.917 1.23-.707.822-1.06 1.859-1.06 3.11 0 2.113.77 3.775 2.312 4.986 1.54 1.211 3.57 1.817 6.086 1.817 1.453 0 2.819-.206 4.097-.616a11.144 11.144 0 0 0 3.473-1.829 8.72 8.72 0 0 0 2.412-3.05c.585-1.212.878-2.545.878-4V6.744c0-.485.077-.916.232-1.293.155-.377.508-.64 1.06-.788.471-.12.895-.215 1.272-.282.376-.068.834-.135 1.372-.202V2.604zm22.408 22.71a9.745 9.745 0 0 1-2.584 2.634c-1.01.693-2.147 1.04-3.412 1.04-2.315 0-4.003-.72-5.067-2.16-1.063-1.44-1.594-3.54-1.594-6.299H46.59v-1.311c0-1.144-.175-2.238-.525-3.28a6.89 6.89 0 0 0-1.675-2.716c-.795-.807-1.798-1.44-3.009-1.898-1.21-.457-2.758-.686-4.642-.686-1.723 0-3.28.296-4.674.888-1.392.592-2.546 1.366-3.461 2.322a10.584 10.584 0 0 0-2.15 3.361 10.496 10.496 0 0 0-.757 3.946c0 1.521.232 2.93.696 4.23a9.13 9.13 0 0 0 2.11 3.38c.941.956 2.136 1.716 3.583 2.282 1.446.565 3.165.847 5.157.847 1.198 0 2.258-.13 3.18-.393a12.46 12.46 0 0 0 2.735-1.161 10.347 10.347 0 0 0 2.27-1.746 12.278 12.278 0 0 0 1.707-2.17l-1.534-1.11zm-12.657-6.48c.053-2.274.39-3.937 1.009-4.986.619-1.05 1.447-1.575 2.483-1.575.605 0 1.107.162 1.504.485.397.323.71.8.939 1.433.201.538.343 1.231.423 2.08.08.847.122 1.675.122 2.482l-6.48.08zm42.774 10.94a5.812 5.812 0 0 1-1.08-.2 7.05 7.05 0 0 1-.797-.283c-.404-.176-.68-.411-.827-.707-.148-.296-.222-.693-.222-1.191V17.5c0-2.058-.549-3.71-1.646-4.955-1.096-1.245-2.742-1.867-4.935-1.867-.915 0-1.777.114-2.584.343-.808.228-1.46.504-1.958.827-.458.296-.956.68-1.494 1.15-.538.472-.996.876-1.373 1.212h-.08v-2.927l-.303-.303-9.63.525v1.474c.445.04.852.114 1.222.222s.677.242.919.403c.35.256.633.586.848.99.215.403.323.814.323 1.23v11.75c0 .497-.081.901-.242 1.21-.162.31-.458.54-.889.687a4.93 4.93 0 0 1-.878.192c-.343.047-.683.084-1.02.11v1.475h12.274v-1.474a6.273 6.273 0 0 1-.95-.202 3.843 3.843 0 0 1-.807-.323c-.309-.161-.531-.4-.666-.717-.134-.315-.202-.709-.202-1.18v-10.84c.162-.216.362-.465.598-.748a4.65 4.65 0 0 1 .941-.827c.445-.31.901-.545 1.367-.707a4.563 4.563 0 0 1 1.508-.242c.984 0 1.73.347 2.236 1.04.506.693.76 1.725.76 3.098v9.447c0 .552-.061.97-.182 1.252a1.284 1.284 0 0 1-.606.646c-.188.094-.464.162-.828.202-.363.04-.673.074-.928.1v1.475h12.131v-1.474zm27.777 0a7.628 7.628 0 0 1-1.855-.403c-.618-.215-1.135-.639-1.552-1.27a755.516 755.516 0 0 0-3.506-5.166c-1.115-1.627-2.33-3.396-3.647-5.306.67-.594 1.264-1.09 1.78-1.488.518-.398 1.051-.78 1.602-1.143a18.278 18.278 0 0 1 2.308-1.322c.705-.33 1.73-.683 3.074-1.06v-1.392H91.445v1.433c.854.121 1.493.262 1.918.424.425.161.638.363.638.605 0 .054-.024.199-.07.435-.048.235-.294.581-.738 1.039-.753.767-1.75 1.736-2.994 2.906a174.84 174.84 0 0 1-3.356 3.088V.323L86.539 0 76.487.525v1.473a10 10 0 0 1 1.393.202c.51.108.895.242 1.15.404.377.242.663.602.858 1.08.195.478.293.939.293 1.382v22.508c0 .498-.078.902-.234 1.212-.156.31-.45.538-.884.686a5.57 5.57 0 0 1-.894.192c-.34.047-.677.084-1.016.11v1.475h12.535v-1.474a6.028 6.028 0 0 1-1.816-.444c-.403-.148-.676-.377-.817-.687-.142-.31-.212-.706-.212-1.19v-4.401l1.189-1.006c.86 1.221 1.774 2.547 2.743 3.977.968 1.429 2.036 3.171 3.207 5.225h9.514v-1.474zm12.98 0a6.052 6.052 0 0 1-1.009-.2 6.767 6.767 0 0 1-.888-.324 1.83 1.83 0 0 1-.868-.737c-.202-.33-.303-.73-.303-1.201V11.284l-.303-.303-9.891.525v1.474c.403.04.85.134 1.342.282.492.149.858.303 1.1.464.323.216.593.502.808.859.215.356.323.77.323 1.24v11.75c0 .497-.088.898-.263 1.2-.175.304-.477.535-.908.697a3.572 3.572 0 0 1-.868.202c-.337.04-.68.074-1.03.1v1.475h12.758v-1.474zM112.358 1.09c-.78-.727-1.715-1.09-2.806-1.09-1.09 0-2.028.363-2.816 1.09-.787.727-1.18 1.602-1.18 2.624 0 1.023.393 1.894 1.18 2.614.788.72 1.726 1.08 2.816 1.08 1.077 0 2.009-.36 2.796-1.08.787-.72 1.181-1.59 1.181-2.614 0-1.022-.39-1.897-1.17-2.624zm32.621 28.685a5.805 5.805 0 0 1-1.08-.202 7.02 7.02 0 0 1-.797-.282c-.404-.176-.68-.411-.827-.707-.149-.296-.223-.693-.223-1.191V17.5c0-2.058-.548-3.71-1.644-4.955-1.098-1.245-2.743-1.867-4.936-1.867-.915 0-1.777.114-2.584.343-.808.228-1.46.504-1.958.827-.458.296-.956.68-1.494 1.15-.538.472-.996.876-1.373 1.212h-.08v-2.927l-.303-.303-9.63.525v1.474c.445.04.852.114 1.222.222s.676.242.918.403c.35.256.633.586.848.99.216.403.323.814.323 1.23v11.75c0 .497-.08.901-.242 1.21-.161.31-.458.54-.888.687a4.93 4.93 0 0 1-.878.192c-.343.047-.683.084-1.02.11v1.475h12.273v-1.474a6.25 6.25 0 0 1-.948-.202 3.815 3.815 0 0 1-.807-.323c-.31-.161-.533-.4-.667-.717-.134-.315-.202-.709-.202-1.18v-10.84c.162-.216.361-.465.598-.748a4.65 4.65 0 0 1 .94-.827c.446-.31.902-.545 1.367-.707a4.563 4.563 0 0 1 1.508-.242c.985 0 1.731.347 2.237 1.04.506.693.759 1.725.759 3.098v9.447c0 .552-.06.97-.182 1.252a1.284 1.284 0 0 1-.605.646c-.189.094-.464.162-.828.202-.363.04-.673.074-.929.1v1.475h12.132v-1.474zm17.997.343c1.729-1.211 2.594-2.92 2.594-5.127 0-1.656-.558-3.018-1.673-4.088-1.115-1.07-2.875-1.914-5.28-2.534-1.558-.403-2.77-.834-3.637-1.291-.867-.458-1.3-1.198-1.3-2.22 0-.768.296-1.367.888-1.798.592-.43 1.406-.645 2.442-.645 1.32 0 2.55.508 3.695 1.523 1.143 1.017 1.95 2.225 2.422 3.624h1.413l-.323-6.883h-1.534l-.424 1.19c-.7-.296-1.564-.568-2.594-.817-1.03-.25-2.157-.373-3.381-.373-2.584 0-4.673.585-6.268 1.756-1.595 1.17-2.392 2.704-2.392 4.602 0 1.023.181 1.905.545 2.645.364.74.848 1.372 1.453 1.897.7.593 1.376 1.026 2.029 1.302s1.437.549 2.352.818c.915.27 1.685.498 2.311.686a10.25 10.25 0 0 1 1.726.687c.471.255.841.558 1.11.908.27.35.404.794.404 1.332 0 .996-.3 1.733-.898 2.21-.6.479-1.511.717-2.735.717-.93 0-1.8-.208-2.614-.626a9.136 9.136 0 0 1-2.17-1.534 11.308 11.308 0 0 1-1.615-2.049c-.472-.76-.808-1.443-1.01-2.048h-1.473l.262 7.53h1.574l.606-1.374c.686.431 1.652.838 2.897 1.222 1.245.383 2.52.575 3.825.575 2.786 0 5.043-.606 6.773-1.817z"/>
</svg>
