<svg xmlns="http://www.w3.org/2000/svg" width="97" height="84" viewBox="0 0 97 84">
    <g fill="#FFF" fill-rule="nonzero">
        <path d="M0 0l48.5 84L97 0H77.6L48.5 50.4 19.157 0z"/>
        <path fill-opacity=".5" d="M19 0l29.12 51L77 0H59.19L48.12 19.615 36.81 0z"/>
    </g>
</svg>
