<svg xmlns="http://www.w3.org/2000/svg" width="159" height="43" viewBox="0 0 159 43">
    <g fill="#FFF" fill-rule="evenodd">
        <path d="M46.373 32.04V12.646h2.515l11.956 15.606V12.647h2.391V32.04H60.72L48.764 16.28v15.76zM83.47 30.316c-1.614.577-3.355.88-5.191.88-7.219 0-10.828-3.308-10.828-9.954 0-6.282 3.483-9.438 10.448-9.438 1.994 0 3.862.273 5.572.789v2.124a15.044 15.044 0 0 0-5.288-.94c-5.445 0-8.168 2.488-8.168 7.404 0 5.311 2.691 7.952 8.042 7.952.855 0 1.805-.122 2.85-.334v-6.404h2.564v7.921zM86.843 24.466V12.647h2.477v11.819c0 3.695 1.834 5.558 5.533 5.558 3.669 0 5.534-1.863 5.534-5.558V12.647h2.476v11.819c0 5.038-2.66 7.573-8.01 7.573s-8.01-2.535-8.01-7.573M110.414 12.647v17.36h10.155v2.032h-12.647V12.647zM124.045 32.04h-2.633l9.696-21.922 9.696 21.921h-2.788l-2.51-6.087h-6.443l.682-2.03h4.925l-3.655-8.762zM143.333 32.04V12.646h8.349c3.724 0 5.586 1.54 5.586 4.648 0 2.524-1.83 4.402-5.462 5.602l6.704 9.142h-3.321l-6.207-8.71v-1.632c3.724-.585 5.618-2.001 5.618-4.279 0-1.785-1.025-2.678-3.104-2.678h-5.586v17.3h-2.577zM28.55 32.73l-2.726-6.328H14.708L12.2 32.669l-4.645.093L20.003 5.026l12.974 27.798-4.428-.093zM19.971 0L0 7.136 3.065 33.6 19.972 43l17.185-9.525 3.314-26.463L19.972 0z"/>
        <path d="M19.531 21.922h4.077L19.56 13.49l-3.541 8.432z"/>
        <path fill-opacity=".25" d="M40.47 7.012L20.236 0v43L37.2 33.475z"/>
    </g>
</svg>
