<svg xmlns="http://www.w3.org/2000/svg" width="87" height="100" viewBox="0 0 87 100">
    <path fill="#FFF" fill-rule="nonzero" d="M43.959 0c4.774 0 9.372.766 13.674 2.189.798.233 1.577.555 2.349.841.283.112.558.22.839.337.884.353 1.753.76 2.6 1.178.832.41 1.639.877 2.433 1.347C79.73 14.1 87.957 31.002 86.911 47.56 85.173 75.066 61.878 96.02 35.57 100V87.374C15.334 83.406 0 65.572 0 44.108 0 19.729 19.663 0 43.959 0zm9.106 16.298c-1.506-.155-3.093.37-4.203 1.687-.807 1.08-1.311 2.125-1.849 3.205-1.614 3.779-1.076 7.827 1.345 10.796 3.766-.81 6.96-3.222 8.574-7 .538-1.08.84-2.463.84-3.543.169-2.868-2.195-4.887-4.707-5.145zm-19.586.253c-2.456.234-4.791 2.193-4.791 4.892 0 1.08.302 2.463.84 3.542 1.614 3.78 5.06 6.192 8.827 7.001 2.152-2.969 2.706-7.017 1.092-10.796-.538-1.08-1.042-2.142-1.849-2.952a4.718 4.718 0 0 0-4.119-1.687zM20.281 29.54c-4.241.218-6.136 5.566-2.605 8.35 1.076.81 2.118 1.4 3.194 1.94 3.766 1.619 8.12 1.062 11.348-1.097-.807-3.509-3.547-6.73-7.313-8.35-1.345-.54-2.438-.844-3.783-.844-.303-.034-.558-.014-.84 0zm41.443 16.362c-2.464-.047-4.96.675-6.977 2.025.807 3.508 3.547 6.73 7.313 8.35 1.345.54 2.438.843 3.783.843 4.842.27 7.212-5.735 3.446-8.434-1.076-.81-2.118-1.316-3.194-1.856a11.585 11.585 0 0 0-4.371-.928zm-36.735.253c-1.479.029-2.96.32-4.371.928-1.345.54-2.388 1.13-3.195 1.94-3.497 2.97-1.143 8.62 3.7 8.35 1.344 0 2.706-.303 3.782-.843 3.766-1.62 6.439-4.841 6.977-8.35a12.008 12.008 0 0 0-6.893-2.025zm13.618 8.266c-3.766.81-6.96 3.222-8.574 7.001-.538 1.08-.841 2.379-.841 3.458-.27 4.589 5.968 7.052 8.658 3.543.807-1.08 1.312-2.126 1.85-3.205 1.614-3.51 1.059-7.558-1.093-10.797zm10.003.253c-2.152 2.97-2.707 7.018-1.093 10.797.538 1.08 1.043 2.142 1.85 2.952 2.959 3.239 9.18.843 8.91-3.205 0-1.08-.302-2.463-.84-3.543-1.614-3.779-5.06-6.19-8.827-7z"/>
</svg>
