<svg xmlns="http://www.w3.org/2000/svg" width="72" height="80" viewBox="0 0 72 80">
    <g fill="#FFF" fill-rule="nonzero">
        <path d="M4 22h53.349c5.879 0 11.128-2.624 14.651-6.72C64.652 5.993 53.12 0 40.143 0 24.254 0 10.523 8.976 4 22M53.552 28H1.644A37.685 37.685 0 0 0 0 39c0 3.82.58 7.51 1.644 11h51.908C59.785 50 65 45.111 65 39s-5.088-11-11.448-11M72 64.55C68.507 60.546 63.31 58 57.492 58H4c6.51 13.024 20.214 22 36.07 22C53.1 80 64.674 73.936 72 64.55"/>
        <path d="M1.643 28A37.69 37.69 0 0 0 0 39c0 3.82.58 7.51 1.643 11H35.6C36.491 46.7 37 43.033 37 39s-.508-7.7-1.399-11H1.643zM20.144 5C13.28 8.97 7.56 14.927 4 22h30c-3.05-6.825-7.881-12.533-13.856-17M21.477 76A45.262 45.262 0 0 0 35 58H4c3.827 7.606 9.95 13.944 17.477 18"/>
    </g>
</svg>
