<svg xmlns="http://www.w3.org/2000/svg" width="143" height="30" viewBox="0 0 143 30">
    <path fill="#FFF" fill-rule="nonzero" d="M26.795 29.94a3.1 3.1 0 0 1-2.197-.91L6.213 10.626v16.205a3.108 3.108 0 1 1-6.213 0V3.118A3.11 3.11 0 0 1 1.919.245 3.1 3.1 0 0 1 5.304.92l18.385 18.403V3.118a3.108 3.108 0 1 1 6.213 0v23.713a3.11 3.11 0 0 1-3.107 3.11M41.182.038l-.854 1.595-6.602 12.01-.854 1.516.854 1.515 6.602 11.622.892 1.594h17.282l.854-1.75 4.932-9.95 2.213-4.509h-5.01l-12.62.039c-1.641-.023-3.151 1.466-3.151 3.11 0 1.642 1.51 3.132 3.151 3.109l7.612-.039-1.864 3.77h-9.787l-4.855-8.551 4.894-8.862h10.41l2.427 4.985h6.253l-3.942-9.454-.855-1.75H41.182M72.655 0c-1.628.02-3.09 1.52-3.068 3.148v8.104H75.8V3.148C75.82 1.494 74.306-.02 72.655 0m9.959 30a3.109 3.109 0 0 1-3.106-3.11V3.178a3.108 3.108 0 1 1 6.213 0v16.205L104.107.979a3.101 3.101 0 0 1 3.385-.674 3.11 3.11 0 0 1 1.917 2.873V26.89a3.108 3.108 0 1 1-6.213 0V10.686L84.81 29.09a3.101 3.101 0 0 1-2.197.91m49.809-14.99l9.664-9.638a3.112 3.112 0 0 0 .008-4.398A3.104 3.104 0 0 0 137.7.967l-9.68 9.654-9.679-9.654a3.103 3.103 0 0 0-4.392.007 3.113 3.113 0 0 0 .006 4.398l9.664 9.639-9.635 9.61a3.11 3.11 0 0 0 2.193 5.313 3.09 3.09 0 0 0 2.192-.908l9.652-9.626 9.65 9.626c.582.582 1.371.909 2.194.908a3.111 3.111 0 0 0 2.193-5.312l-9.637-9.612M72.655 29.912c-1.628-.02-3.09-1.52-3.068-3.148V13.747H75.8v13.017c.02 1.653-1.494 3.167-3.145 3.148"/>
</svg>
