<svg xmlns="http://www.w3.org/2000/svg" width="24" height="24" viewBox="0 0 24 24">
    <g fill="none" fill-rule="evenodd" stroke="#22BCA8" transform="translate(2 2)">
        <circle cx="10" cy="10" r="11" fill="#FFF" stroke-width="2"/>
        <path fill="#21BAA6" fill-rule="nonzero" d="M6.343 5.757a.414.414 0 1 0-.586.586l7.9 7.9a.414.414 0 0 0 .586-.586l-7.9-7.9zm-.586 7.9a.414.414 0 1 0 .586.586l7.9-7.9a.414.414 0 0 0-.586-.586l-7.9 7.9z"/>
    </g>
</svg>
