<svg xmlns="http://www.w3.org/2000/svg" width="203" height="145" viewBox="0 0 203 145">
    <g fill="#22BCA8" fill-rule="evenodd">
        <path fill-opacity=".1" d="M41.642 95.866c-3.855-2.108-7.792-1.173-11.906-2.287-4.164-1.127-7.712-3.605-11.172-6.083-2.043-1.462-11.91-10.382-14.29-6.059-3.72 6.763 6.616 16.666 11.348 20.116 6.92 5.045 20.001 10.4 27.218 3.603 2.723-2.568 2.083-7.497-1.198-9.29M73.872 42.63c-3.776-5.244-8.457-8.36-15.003-8.264-1.657.025-2.243 1.904-1.271 3.071 3.267 3.922 5.873 9.26 7.64 13.996 2.015 5.403 2.118 10.863 7.932 13.305 2.132.896 4.505-.639 5.664-2.304 3.78-5.437-1.596-15.127-4.962-19.803M56.06 49.874c-1.725-3.057-5.006-4.59-8.429-4.582-1.065.003-1.645 1.634-.577 2.128 3.284 1.515 2.848 5.447 1.461 8.179-1.436 2.829-3.057 5.18-1.933 8.476 2.022 5.926 11.265 3.516 9.473-2.611-.332-1.135 1.113-3.723 1.233-5.103.192-2.176-.142-4.561-1.228-6.487"/>
        <path fill-opacity=".1" d="M39.443 82.386c-5.875-.935-15.192.777-18.486 6.399-.874 1.49-.087 3.588 1.632 4.013 2.418.597 4.9.214 7.363.324 2.688.12 5.231.772 7.9 1.018 6.645.61 8.264-10.691 1.59-11.754M42.208 50.7c-2.043 1.954-2.847 4.587-5.037 6.478-1.841 1.592-4.285 2.452-5.963 4.206-.913.955-.962 2.523 0 3.474 2.95 2.914 8.073 2.125 11.514.557 4.295-1.956 8.49-5.96 8.756-10.875.26-4.866-6.03-6.938-9.27-3.84M72.04 109.718c-1.642.697-2.344 1.988-3.647 3.06-1.38 1.133-3.19 1.776-4.883 2.267-2.621.758-6.486.71-8.443 2.895l-.096.108c-.665.74-.767 1.668-.33 2.547 2.039 4.092 10.255 3.874 13.939 3.147 4.803-.946 10.733-4.455 10.642-9.902-.066-3.952-3.93-5.5-7.182-4.122"/>
        <path fill-opacity=".1" d="M166.893 80.673c-3.817 1.393-9.213 1.02-13.235 1.459-2.3.25-4.588.439-6.817.886a21.256 21.256 0 0 1-.072-.383c3.684-.28 7.367-.453 11.053-1 3.11-.46 7.278-.473 10.455-1.843-.376.376-.83.677-1.384.88m34.88-37.426c-1.098-4.257-6.74-4.604-8.97-1.172-.43.658-.704 1.28-.99 2.043-.023.064-.338.928-.316.907-.221.532-.452 1.06-.644 1.605a2.651 2.651 0 0 1-.05.137c-1.089-1.66-3.256-2.689-5.225-1.415-3.544 2.292-6.67 5.327-9.678 8.27-.687.674-1.41 1.369-2.123 2.093a3.97 3.97 0 0 0-2.935-.341c-1.215-.568-2.868-.47-3.722.598-1.992 2.488-2.155 3.925-2.118 7.158.032 2.763 1.153 8.041-.986 10.123-1.69 1.644-7.601 2.071-9.901 2.641-2.82.698-5.604 1.585-8.419 2.314-1.784-5.999-4.958-11.26-11.72-12.626-1.478-.3-2.55 1.392-1.482 2.543.356.382.675.801.977 1.236-3.408.188-7.007 1.237-10.074 1.754-6.18 1.041-12.421 2.66-18.658 3.24-1.583.147-2.312 1.571-2.134 2.78-1.828.103-3.655.201-5.482.31-12.433.743-24.619 2.302-36.971 3.634-2.162.233-2.278 3.455 0 3.459 23.143.043 46.359 1.069 69.524 1.517-.545 5.478.225 11.547.185 16.457-.057 7.13-.112 14.259-.127 21.39-12.3 1.692-24.631 2.931-36.992 4.148-6.418.632-12.853 1.024-19.275 1.594-5.86.52-12.616.314-17.916 3.084-.575.3-.805.958-.713 1.56-3.196.373-6.352.963-9.433 1.909-2.311.709-2.01 3.584 0 4.403 11.923 4.855 25.981 4.059 38.677 4.16 13.418.11 26.855-.352 40.232-1.416 9.412-.749 21.256.248 21.939-11.863.287-5.08.414-10.184.475-15.293.582-.458 1.081-1.095 1.415-1.933 1.983-4.973 1.171-10.797.738-16.025a163.057 163.057 0 0 0-.971-8.857c3.914.743 8.144.616 11.914.404 4.548-.258 10.934-.152 14.79-2.994 3.952-2.913 3.543-7.933 3.35-12.303-.166-3.815.042-8.645-.898-12.785 1.116-.917 2.192-1.884 3.273-2.758 2.94-2.378 6.119-4.439 9.077-6.784.194.75.572 1.472 1.136 2.142 1.305 1.546 3.481 1.691 5.312 1.26 1.852-.437 3.094-1.716 4.085-3.26 1.693-2.635 2.623-5.954 1.824-9.048M134.855 31.602c-.71-8.843-1.94-17.18-.846-26.058.79-6.396-9.8-7.724-11.21-1.517-1.468 6.462-1.044 12.973-.33 19.507.329 3.024.722 6.041.949 9.075.05.694.45 2.29.41 3.396-.464-.433-2.546.231-3.18.343-6.76 1.187-13.559 2.271-20.37 3.127-5.774.727-12.108.62-17.724 1.982-2.642.64-3.337 4.036-1.556 5.893 5.151 5.37 14.748 3.46 21.374 2.84 8.225-.77 17.176-1.258 25.149-3.51 7.309-2.063 7.86-8.547 7.334-15.078M77.983 31.41c-3.21-.623-5.843.121-8.294 2.325-1.742 1.567-3.717 4.004-3.429 6.49.154 1.341 1.07 2.691 2.608 2.608 1.86-.1 3.615-1.22 5.029-1.871 1.16-.536 1.808-.688 2.948-1.279 1.074-.556 1.876-1.387 2.74-2.203 1.89-1.784 1.088-5.55-1.602-6.07"/>
        <path fill-opacity=".1" d="M144.35 47.22c-.721-1.375-2.024-2.133-3.45-2.592-.275-.089-.554-.168-.83-.257-.077-.024-.456-.167-.653-.231-.14-.075-.294-.154-.337-.18-.203-.12-.886-.739-.27-.138-.49-.478-1.042-.885-1.538-1.358-1.173-1.117-2.993-1.4-4.412-.57-1.499.878-1.924 2.496-1.674 4.112.77 4.973 8.037 10.678 12.498 6.37 1.405-1.356 1.535-3.494.665-5.156"/>
        <path d="M37.975 45.544h-.138c-2.213.04-4.335 1.007-5.975 2.721-1.84 1.922-2.855 4.53-2.786 7.153.15 5.69 5.326 8.754 9.008 8.78 2.233-.005 4.664-1.058 6.436-2.867a9.665 9.665 0 0 0 2.784-7.083c-.065-2.363-.93-4.28-2.723-6.036-1.141-1.119-2.69-1.932-4.607-2.416a8.118 8.118 0 0 0-1.999-.252m.155 21.974h-.068c-5.793-.04-12.118-4.875-12.305-12.014-.092-3.502 1.26-6.977 3.705-9.534 2.257-2.359 5.21-3.69 8.315-3.746a11.593 11.593 0 0 1 3.012.352c2.492.631 4.55 1.73 6.117 3.265 2.411 2.361 3.627 5.08 3.717 8.314.1 3.565-1.225 6.938-3.73 9.498-2.407 2.458-5.597 3.865-8.763 3.865"/>
        <path d="M22.468 89.175h.01-.01zm1.762 3.376c-4.061 0-5.236-1.14-5.236-5.086 0-.461.015-.936.028-1.397.012-.4.024-.79.024-1.15 0-9.104 6.801-19.396 16.923-20.206a1.67 1.67 0 0 1 1.788 1.523 1.661 1.661 0 0 1-1.523 1.788c-8.172.652-13.867 9.428-13.867 16.895 0 .391-.012.815-.025 1.251a42.19 42.19 0 0 0-.027 1.296c0 1.07.074 1.485.125 1.642.19.062.662.124 1.79.124 1.58 0 3.192-.324 4.9-.667 2.124-.425 4.354-.873 6.619-.69.914.07 1.598.867 1.528 1.783-.07.913-.872 1.62-1.783 1.526-1.85-.14-3.712.236-5.712.639-1.791.358-3.644.73-5.552.73z"/>
        <path d="M37.113 104.598c-16.854 0-31.971-11.376-35.941-28.036C-1.52 65.271.46 54.01 6.746 44.85c6.278-9.148 16.421-15.275 27.83-16.81 17.415-2.343 34.577 8.971 39.066 25.764l.151.587c.735 2.948 1.137 5.934 1.229 9.13a1.66 1.66 0 0 1-1.613 1.707c-.896.06-1.68-.695-1.707-1.612-.085-2.953-.455-5.71-1.13-8.423l-.138-.53c-4.066-15.21-19.62-25.453-35.416-23.333C24.54 32.74 15.232 38.353 9.484 46.729c-5.748 8.374-7.553 18.696-5.083 29.064 4.07 17.073 21.04 28.038 38.638 24.969a1.66 1.66 0 1 1 .572 3.27c-2.182.381-4.354.566-6.498.566"/>
        <path d="M123.987 63.755c-15.114 0-30.496.639-45.37 1.257-6.776.282-13.785.573-20.683.8-6.743.223-13.717 4.454-13.717 11.15.12 10.874.603 21.766 1.071 32.299.355 7.982.72 16.22.929 24.403 33.078-1.801 55.906-1.717 74.31-1.652 6.871.025 13.397.05 19.6-.032-.798-17.494-2.057-36.602-3.847-58.34-.43-5.235-4.7-9.848-9.137-9.875-1.052-.007-2.104-.01-3.156-.01m-79.39 73.321a1.66 1.66 0 0 1-1.659-1.622c-.197-8.71-.588-17.523-.967-26.046-.47-10.56-.954-21.48-1.074-32.3v-.146c0-8.709 8.606-14.195 16.929-14.469 6.882-.227 13.884-.517 20.654-.798 15.948-.663 32.448-1.346 48.684-1.25 6.8.04 11.915 6.714 12.425 12.922 1.851 22.492 3.137 42.175 3.93 60.175.02.448-.142.886-.449 1.212a1.667 1.667 0 0 1-1.182.521c-6.742.111-13.849.085-21.373.058-18.679-.069-41.92-.153-75.824 1.741l-.093.002"/>
        <path d="M42.528 81.24a1.66 1.66 0 0 1-.068-3.32l94.622-3.929a1.66 1.66 0 0 1 .137 3.318l-94.622 3.929-.07.001M55.753 119.996c2.542.052 5.612.029 8.551-.005 1.704-.017 3.408-.035 5.112-.035 1.285 0 1.945.009 2.581.017.585.006 1.15.013 2.174.013l1.174-.005c-.678-8.973-1.098-17.92-1.487-27.026-2.503.063-5.021.17-7.47.272-3.511.149-7.132.301-10.738.329.086 3.644.098 7.128.098 9.856 0 1.798-.005 3.596-.012 5.394-.007 1.796-.012 3.59-.012 5.385 0 1.935.007 3.87.029 5.805m3.473 3.351c-1.911 0-3.602-.023-5.163-.072a1.66 1.66 0 0 1-1.609-1.633c-.04-2.484-.05-4.968-.05-7.45 0-1.8.005-3.6.012-5.398.006-1.794.012-3.588.012-5.382 0-3.128-.017-7.256-.143-11.463-.014-.45.156-.887.47-1.21.316-.322.797-.487 1.2-.5h.562c3.91 0 7.886-.166 11.73-.329 2.998-.126 6.1-.257 9.173-.31.898.02 1.648.69 1.686 1.59.434 10.24.89 20.264 1.687 30.313a1.657 1.657 0 0 1-1.647 1.792l-2.975.011c-1.045 0-1.62-.007-2.215-.013-.626-.009-1.275-.016-2.54-.016-1.692 0-3.385.016-5.077.035-1.705.018-3.408.035-5.113.035M93.185 93.64a1.66 1.66 0 0 1-.064-3.319c2.55-.1 5.107-.24 7.665-.38 4.709-.259 9.577-.526 14.382-.526 2.457 0 4.706.067 6.875.208.914.06 1.608.85 1.55 1.764a1.657 1.657 0 0 1-1.766 1.55 102.053 102.053 0 0 0-6.66-.202c-4.712 0-9.535.265-14.198.52-2.577.143-5.15.284-7.718.384-.021.002-.044.002-.066.002M94.55 102.45a1.66 1.66 0 0 1-.161-3.313c3.938-.387 9.207-.479 14.303-.568 5.157-.09 11.001-.192 12.294-.661a1.66 1.66 0 0 1 1.134 3.12c-1.726.627-6.206.737-13.37.861-4.796.084-10.232.178-14.036.553a1.66 1.66 0 0 1-.165.008M101.408 110.684c-2.165 0-4.332-.017-6.507-.046a1.66 1.66 0 0 1 .022-3.32c2.183.028 4.336.045 6.485.045 7.321 0 14.14-.176 20.846-.54a1.664 1.664 0 0 1 1.748 1.57 1.66 1.66 0 0 1-1.569 1.747c-6.767.365-13.644.544-21.025.544M95.914 118.952a1.66 1.66 0 0 1-.181-3.311c1.009-.112 3.978-.283 5.206-.283 1.05 0 2.09.053 3.095.104 1.012.05 1.968.1 2.942.1 1.363 0 3.38-.117 5.718-.25 2.987-.171 6.372-.366 9.326-.366a1.66 1.66 0 1 1 0 3.32c-2.858 0-6.193.192-9.135.36-2.389.137-4.451.256-5.909.256-1.058 0-2.102-.053-3.11-.104-1.009-.051-1.96-.1-2.927-.1-1.089 0-3.938.163-4.84.264-.062.006-.124.01-.185.01M79.262 41.721c10.143.043 20.372.172 30.282.3 6.933.088 13.864.175 20.81.235l-.062-3.232c-.213-11.268-.433-22.904-.508-34.346-5.555-.287-11.374-.426-17.733-.426-10.424 0-20.816.374-32.246.84-.06 5.525-.158 11.13-.255 16.564-.117 6.59-.238 13.387-.288 20.065m52.784 3.87c-7.536-.06-15.04-.156-22.544-.25-10.445-.134-21.246-.271-31.916-.306a1.66 1.66 0 0 1-1.655-1.67c.042-7.23.172-14.62.299-21.768.105-5.947.214-12.094.27-18.116a1.66 1.66 0 0 1 1.592-1.642c12.093-.496 22.995-.908 33.96-.908 7.018 0 13.39.17 19.478.516.875.05 1.56.774 1.566 1.65.063 11.92.293 24.092.516 35.865l.093 4.938a1.66 1.66 0 0 1-1.66 1.691"/>
        <path d="M78.034 14.796a1.661 1.661 0 0 1-.025-3.32c8.987-.145 18.796-.211 30.87-.211 6.962 0 13.922.02 20.87.042l1.777.005a1.66 1.66 0 0 1-.004 3.32l-1.782-.005c-6.946-.02-13.904-.042-20.86-.042-12.056 0-21.849.067-30.846.21M93.457 26.336a1.66 1.66 0 0 1-.054-3.32l20.06-.669c.918-.043 1.683.688 1.714 1.605a1.66 1.66 0 0 1-1.604 1.715l-20.06.667c-.018.002-.037.002-.056.002M102.262 33.412c-3.19 0-6.396-.056-9.532-.168a1.662 1.662 0 0 1 .06-3.32h.222c.074 0 .149.006.22.014 6.075.208 12.378.203 18.443-.012.947-.048 1.687.684 1.72 1.6a1.662 1.662 0 0 1-1.601 1.718c-3.135.112-6.343.168-9.532.168M138.597 83.41a1.662 1.662 0 0 1-.072-3.32c10.91-.48 20.707-.647 30.558-.513-.152-4.849-.443-9.772-.726-14.55a759.429 759.429 0 0 1-.552-10.05c-3.212-.013-6.424-.003-9.635.006-2.11.008-4.22.014-6.33.014-5.875 0-12.722-.05-19.594-.398.045 2.763.066 5.52.086 8.274a1.66 1.66 0 1 1-3.32.024c-.025-3.334-.05-6.671-.119-10.02-.01-.463.175-.908.508-1.229a1.637 1.637 0 0 1 1.249-.462c7.38.432 14.853.49 21.19.49 2.106 0 4.213-.006 6.319-.013 3.749-.012 7.498-.022 11.246.002a1.66 1.66 0 0 1 1.648 1.591c.16 3.846.393 7.775.618 11.576.318 5.374.648 10.932.779 16.392a1.66 1.66 0 0 1-.482 1.21 1.7 1.7 0 0 1-1.206.49c-10.37-.185-20.61-.021-32.09.485h-.075"/>
        <path d="M169.741 61.902c-.044 0-6.37-.17-6.37-.17-8.205-.225-16.689-.458-25.022-.458-2.71 0-5.217.023-7.669.072-.935 0-1.675-.722-1.692-1.629a1.661 1.661 0 0 1 1.627-1.692 390.07 390.07 0 0 1 7.734-.072c8.378 0 16.886.234 25.113.46l6.321.17a1.659 1.659 0 0 1-.042 3.32M142.904 72.852a1.66 1.66 0 0 1-.143-3.314c2.636-.229 5.28-.229 7.834-.229 2.485 0 5.055 0 7.545-.217a1.66 1.66 0 1 1 .289 3.307c-2.635.23-5.278.23-7.834.23-2.484 0-5.054 0-7.545.217a1.65 1.65 0 0 1-.146.006M65.274 41.647a1.66 1.66 0 0 1-1.104-2.901c3.505-3.117 7.377-6.328 12.553-10.413a1.661 1.661 0 0 1 2.058 2.607c-5.124 4.042-8.95 7.216-12.405 10.287-.317.282-.71.42-1.102.42M146.125 54.976c-.467 0-.931-.196-1.26-.578l-14.213-16.541a1.66 1.66 0 0 1 2.518-2.164l14.213 16.54a1.662 1.662 0 0 1-1.258 2.743"/>
        <path d="M169.676 60.772a1.66 1.66 0 0 1-1.385-2.573c3.577-5.43 7.073-7.71 11.12-10.35 1.873-1.222 3.81-2.486 5.977-4.2a1.661 1.661 0 0 1 2.062 2.603c-2.287 1.81-4.38 3.174-6.224 4.379-3.892 2.537-6.965 4.541-10.162 9.394a1.657 1.657 0 0 1-1.388.747"/>
        <path d="M186.158 40.484c1.345 1.414 2.597 2.9 3.82 4.354l.896 1.062c.351-.616.702-1.233 1.05-1.848 1.092-1.921 2.207-3.884 3.345-5.84-3.023.72-6.095 1.465-9.11 2.272m4.994 9.936c-.472 0-.925-.201-1.242-.558-.84-.946-1.657-1.916-2.473-2.885-1.848-2.194-3.592-4.266-5.613-6.095a1.66 1.66 0 0 1 .657-2.827c4.576-1.31 9.311-2.433 13.89-3.518l1.927-.458a1.66 1.66 0 0 1 1.808 2.471c-1.814 3.016-3.583 6.13-5.294 9.142a920.501 920.501 0 0 1-2.22 3.895 1.662 1.662 0 0 1-1.44.833"/>
    </g>
</svg>
