<svg xmlns="http://www.w3.org/2000/svg" width="70" height="70" viewBox="0 0 70 70">
    <g fill="none" fill-rule="evenodd">
        <path fill="#979797" d="M34.62 70L.008 34.998 34.62 0l34.61 34.998L34.62 70"/>
        <path fill="#FFF" fill-opacity=".56" d="M35.008 10.842l-2.296-2.286-10.149 10.11 10.149 10.112 2.294-2.287-7.852-7.825 7.854-7.824"/>
        <path fill="#FFF" fill-opacity=".44" d="M47.452 18.666L37.304 8.556l-2.294 2.286 7.852 7.824-7.854 7.825 2.296 2.287 10.148-10.112"/>
        <path fill="#FFF" fill-opacity=".74" d="M35.009 10.889l-7.779 7.777 7.776 7.778 7.78-7.778-7.777-7.777"/>
        <path fill="#FFFFFE" d="M36.19 32.667v1.737c1.555-1.058 2.791-1.612 3.835-1.612 1.16 0 2.028.58 2.522 1.713 1.656-1.159 3.019-1.713 4.056-1.713 2.102 0 2.77 1.513 2.77 4.64v1.284c0 1.032 0 2.42-.073 4.184l1.263.151v.505h-4.627v-.505l1.409-.176c.125-1.135.15-2.545.15-4.235 0-3.227-.15-4.663-2.078-4.663-.693 0-1.608.328-2.72 1.06.096.88.12 1.864.12 2.948V42.9l1.311.151v.505h-4.6v-.505l1.335-.176c.076-1.16.076-2.572.076-4.235 0-3.277-.199-4.663-2.103-4.663-.695 0-1.61.328-2.646 1.034v5.467c0 .91 0 1.741.071 2.422l1.46.151v.505h-4.973v-.505l1.46-.151c.051-.68.101-1.487.101-2.422v-4.612c0-.882-.05-1.663-.1-2.395l-1.534-.074.073-.504 3.442-.226M51.341 31.111l-1.181 3.111h-.374l.248-3.11h1.307M11.903 31.81c0 2.02 1.023 3.447 3.217 4.484.411.193.812.36 1.197.524 1.09.457 2.03.852 2.664 1.595.443.518.658 1.148.658 1.928 0 1.9-1.395 3.225-3.388 3.225-2.12 0-3.445-1.56-3.731-4.396l-.004-.045h-.738v2.556c0 .847-.03 1.557-.099 2.175l-.004.056h.62l.016-.022c.146-.218.309-.302.58-.302.219 0 .514.099.888.225.66.22 1.56.52 2.744.52 3.148 0 5.263-1.993 5.263-4.96 0-3.048-1.729-3.998-4.576-5.203-2.112-.9-3.307-1.496-3.307-3.253 0-1.795 1.251-3.002 3.115-3.002 1.966 0 3.22 1.402 3.436 3.848l.004.047h.659v-1.934c0-.64.04-1.32.124-2.079l.006-.055h-.649l-.014.022c-.161.232-.342.326-.627.326-.172 0-.418-.106-.732-.24-.584-.25-1.469-.628-2.652-.628-2.705 0-4.67 1.93-4.67 4.588M51.506 35.62c0 1.298.706 2.215 2.217 2.882l.814.33c.73.282 1.356.528 1.769.982.287.309.428.69.428 1.163 0 1.147-.911 1.951-2.211 1.951-1.408 0-2.252-.932-2.443-2.693l-.01-.094h-.646v1.676c0 .535-.023.979-.07 1.358l-.013.117h.553l.033-.047c.083-.117.168-.157.326-.157.134 0 .328.06.575.135.45.142 1.066.333 1.88.333 2.172 0 3.633-1.28 3.633-3.187 0-1.959-1.186-2.566-3.143-3.336-1.433-.569-2.184-.913-2.184-1.973 0-1.1.794-1.814 2.025-1.814 1.285 0 2.103.858 2.244 2.352l.01.094h.596v-1.288c0-.397.024-.808.083-1.294l.013-.115h-.567l-.034.044c-.09.124-.19.172-.359.172-.098 0-.258-.064-.462-.145-.401-.16-1.008-.4-1.823-.4-1.875 0-3.234 1.243-3.234 2.954M24.033 35.53c.054-1.676 1.67-2.863 3.907-2.863 2.348 0 3.312 1.205 3.312 3.734v.395l-.11 3.636c0 .888 0 1.698.074 2.362l1.459.147v.492H29.33l-.059-1.105c-1.134.835-2.272 1.228-3.409 1.228-1.53 0-2.52-.958-2.52-2.36 0-1.966 1.976-3.121 5.982-3.636l.075-1.967v-.27c0-1.501-.62-2.165-1.98-2.165-1.036 0-1.804.467-1.804 1.156 0 .246.081.946.081 1.218a.83.83 0 0 1-.831.827.83.83 0 0 1-.832-.827v-.001zm5.216 5.692c0-1.01.022-2.09.075-3.269-2.92.418-4.278 1.155-4.278 2.85 0 1.106.719 1.845 1.852 1.845.767 0 1.51-.273 2.35-.789v-.637zM27.23 50.39a4.771 4.771 0 0 1-1.141.166c-1.622 0-2.748-.852-2.748-2.63 0-1.805 1.048-2.815 2.748-2.815.33 0 .768.068 1.134.22l-.073.888c-.38-.225-.724-.279-1.083-.279-1.032 0-1.678.832-1.678 1.91 0 1.07.632 1.877 1.7 1.877.394 0 .86-.09 1.098-.22l.043.884M29.563 45.111h1.06v4.587h2.052v.858h-3.112V45.11M35.786 45.111h.954v3.09c0 .914.26 1.512.99 1.512s.989-.598.989-1.511v-3.09h.956v3.42c0 1.434-.723 2.024-1.944 2.024-1.223 0-1.945-.59-1.945-2.025v-3.42M44.341 49.778h.49c.48 0 1.066-.122 1.066-.748 0-.7-.549-.808-1.067-.808h-.489v1.556zm0-2.334h.47c.485 0 1.086-.117 1.086-.767 0-.734-.584-.788-1.11-.788h-.446v1.555zm-.778-2.333h1.55c.571 0 1.428.203 1.428 1.394 0 .649-.356 1.1-.882 1.217v.018c.602.07 1.016.57 1.016 1.24 0 1.373-1.004 1.576-1.562 1.576h-1.55V45.11zM48.895 45.853h.083c.098 0 .176-.033.176-.113 0-.072-.05-.119-.162-.119a.436.436 0 0 0-.097.01v.222zm-.005.434h-.175v-.769c.07-.014.165-.029.291-.029.143 0 .207.023.263.062a.21.21 0 0 1 .074.166c0 .088-.066.155-.157.183v.01c.073.024.115.084.137.189.026.117.039.164.056.188h-.19c-.02-.027-.035-.094-.058-.183-.015-.086-.06-.123-.157-.123h-.084v.306zm.116-1.02c-.332 0-.581.279-.581.619 0 .346.25.62.59.62.334.003.577-.274.577-.62 0-.34-.243-.62-.58-.62h-.006zm.009-.156c.434 0 .77.346.77.775 0 .439-.336.78-.773.78a.775.775 0 0 1-.782-.78c0-.43.347-.775.782-.775h.003z"/>
    </g>
</svg>
