<svg xmlns="http://www.w3.org/2000/svg" width="71" height="100" viewBox="0 0 71 100">
    <g fill="#979797" fill-rule="evenodd" opacity=".9">
        <path d="M37.986.222s-10.806 17.84-8.141 36.802c2.027 14.419 7.123 23.234 1.357 40.024 0 0 9.497-11.969 9.497-29.38 0-10.13-8.989-31.334-2.713-47.446M2.226 96.955c-.142-.077-.294-.147-.442-.218-.445-.216-.843-.443-.759-.898.106-.567.502-.686.797-.686.254 0 .563.134.765.239.127.064.21.117.21.117l.149-.72s-.286-.198-.558-.277c-.272-.08-1.414-.29-1.978.729-.614 1.112.234 1.819.932 2.198.006.003.012.005.018.01.569.304 1.272.568 1.16 1.167-.105.566-.611.668-.905.668-.414 0-1.112-.4-1.112-.4l-.247.765s.265.194.537.272c.272.08 1.675.309 2.239-.71.614-1.113-.108-1.878-.806-2.256M11.149 95.372h2.434v-.777h-3.245v5.275h3.245v-.778H11.15v-1.588h1.71v-.777h-1.71v-1.355M22.72 97.14h-1.245v-1.927h.86s1.129-.008 1.129.965c0 .824-.744.961-.744.961zm-.67-2.545h-1.336v5.275h.761v-2.172h1.195s1.447.01 1.447-1.612c0-1.567-2.068-1.491-2.068-1.491zM34.794 96.667h-2.726v-2.072h-.812v5.275h.812v-2.426h2.726v2.426h.81v-5.287h-.81v2.084M45.47 99.18a1.93 1.93 0 1 1-.001-3.859 1.93 1.93 0 0 1 0 3.858zm-.002-4.643a2.714 2.714 0 1 0 0 5.428 2.714 2.714 0 0 0 0-5.428zM56.072 97.013v-1.8h.86s1.027-.008 1.027.965c0 .688-.67.835-.67.835h-1.217zm1.602.464s.94-.22.94-1.44c0-1.568-1.779-1.442-1.779-1.442h-1.523v5.275h.76v-2.298h.803l1.63 2.298h.887l-1.718-2.393zM67.8 98.166l.763-2.6h.18l.919 2.6H67.8zm1.28-3.587h-.697l-1.86 5.29h.695l.448-1.277h2.13l.471 1.278h.695l-1.883-5.291z"/>
    </g>
</svg>
