<svg xmlns="http://www.w3.org/2000/svg" width="168" height="40" viewBox="0 0 168 40">
    <g fill="#979797" fill-rule="evenodd">
        <path d="M147.376 13.449c.934 0 1.703-.485 1.807-1.114l.924-10.433c0-1.031-1.208-1.879-2.728-1.879-1.518 0-2.724.848-2.724 1.879l.922 10.433c.101.629.871 1.114 1.802 1.114h-.003M141.736 16.709c.47-.809.433-1.718-.06-2.121l-8.577-6.015c-.89-.516-2.228.105-2.987 1.421-.761 1.314-.626 2.783.264 3.298l9.495 4.421c.595.221 1.403-.202 1.869-1.01l-.004.006M153.02 16.703c.467.808 1.272 1.231 1.867 1.01l9.496-4.421c.894-.515 1.023-1.984.267-3.298-.763-1.316-2.102-1.937-2.99-1.42l-8.577 6.014c-.49.403-.527 1.312-.06 2.12l-.004-.005M147.376 26.481c.934 0 1.703.483 1.807 1.11l.924 10.434c0 1.033-1.208 1.878-2.728 1.878-1.518 0-2.724-.845-2.724-1.878l.922-10.433c.101-.628.871-1.11 1.802-1.11h-.003M153.02 23.223c.467-.81 1.272-1.23 1.867-1.006l9.496 4.416c.894.517 1.023 1.986.267 3.302-.763 1.311-2.102 1.934-2.99 1.42l-8.577-6.01c-.49-.408-.527-1.316-.06-2.124l-.004.002M141.736 23.221c.47.808.433 1.716-.06 2.124l-8.577 6.01c-.89.514-2.228-.109-2.987-1.42-.761-1.316-.626-2.785.264-3.302l9.495-4.416c.595-.224 1.403.196 1.87 1.006l-.005-.002M93.282 25.325c0 .32-.029.651-.117.94-.364 1.205-1.611 2.223-3.171 2.223-1.301 0-2.334-.738-2.334-2.3 0-2.387 2.629-3.048 5.622-3.032v2.169zm4.695-4.162c0-3.94-1.683-7.406-7.37-7.406-2.92 0-5.237.82-6.502 1.551l.926 3.167c1.155-.73 2.998-1.333 4.741-1.333 2.885-.008 3.358 1.632 3.358 2.684v.249c-6.29-.01-10.264 2.167-10.264 6.604 0 2.71 2.024 5.248 5.543 5.248 2.164 0 3.975-.864 5.058-2.247h.107s.719 3.005 4.678 1.855c-.208-1.25-.275-2.583-.275-4.19v-6.182zM0 8.393s4.109 16.837 4.765 19.57c.765 3.19 2.144 4.364 6.12 3.572l2.566-10.44c.65-2.593 1.087-4.441 1.505-7.079h.073c.294 2.664.713 4.495 1.248 7.089 0 0 1.044 4.739 1.579 7.228.536 2.488 2.029 4.056 5.923 3.202l6.114-23.142h-4.936L22.87 18.398c-.561 2.912-1.07 5.188-1.463 7.853h-.07c-.357-2.639-.81-4.824-1.381-7.661L17.782 8.393H12.64l-2.325 9.94c-.658 3.02-1.275 5.46-1.666 8.033h-.071c-.401-2.424-.936-5.489-1.514-8.413 0 0-1.381-7.11-1.866-9.56H0M39.226 25.325c0 .32-.028.651-.117.94-.363 1.205-1.611 2.223-3.171 2.223-1.3 0-2.334-.738-2.334-2.3 0-2.387 2.63-3.048 5.622-3.032v2.169zm4.695-4.162c0-3.94-1.683-7.406-7.369-7.406-2.92 0-5.239.82-6.503 1.551l.925 3.167c1.157-.73 2.998-1.333 4.742-1.333 2.887-.008 3.359 1.632 3.359 2.684v.249c-6.29-.01-10.264 2.167-10.264 6.604 0 2.71 2.023 5.248 5.54 5.248 2.165 0 3.976-.864 5.06-2.247h.107s.719 3.005 4.678 1.855c-.208-1.25-.275-2.583-.275-4.19v-6.182zM51.755 26.622V8.392h-4.7v23.143h4.7v-4.913M113.243 8.393v17.072c0 2.354.443 4.003 1.39 5.01.828.882 2.192 1.452 3.826 1.452 1.39 0 2.757-.264 3.401-.504l-.06-3.672c-.48.118-1.031.212-1.785.212-1.601 0-2.138-1.025-2.138-3.138v-6.532h4.093v-4.428h-4.093V8.393h-4.634M101.11 14.15v17.385h4.849v-8.902c0-.48.029-.899.105-1.283.359-1.865 1.785-3.057 3.832-3.057.562 0 .964.061 1.4.124v-4.552a4.67 4.67 0 0 0-1.069-.108c-1.809 0-3.867 1.168-4.731 3.672h-.132v-3.28h-4.253M55.046 14.15v17.385h4.725V21.34c0-.478.054-.983.221-1.422.392-1.027 1.347-2.228 2.871-2.228 1.907 0 2.799 1.612 2.799 3.938v9.908h4.72V21.216c0-.456.062-1.005.196-1.409.388-1.168 1.417-2.118 2.835-2.118 1.932 0 2.86 1.584 2.86 4.32v9.526h4.723V21.296c0-5.4-2.742-7.539-5.837-7.539-1.371 0-2.453.344-3.432.945-.822.504-1.558 1.221-2.202 2.165h-.07c-.746-1.874-2.502-3.11-4.79-3.11-2.942 0-4.263 1.49-5.064 2.755h-.07V14.15h-4.485M166.265 31.252h.089c.103 0 .187-.035.187-.118 0-.074-.054-.123-.172-.123a.439.439 0 0 0-.104.01v.231zm-.005.453h-.187v-.803a1.56 1.56 0 0 1 .31-.03c.153 0 .222.025.281.065a.222.222 0 0 1 .08.172c0 .094-.07.163-.168.192v.01c.078.025.123.089.147.197.025.123.04.173.06.197h-.203c-.024-.03-.039-.098-.063-.192-.015-.088-.065-.128-.168-.128h-.089v.32zm.123-1.064c-.354 0-.62.29-.62.645 0 .36.266.646.63.646.355.005.616-.286.616-.646 0-.354-.261-.645-.62-.645h-.006zm.01-.162c.463 0 .823.36.823.807 0 .459-.36.813-.828.813a.815.815 0 0 1-.832-.813c0-.448.37-.807.832-.807h.005z"/>
    </g>
</svg>
